<svg width="30" height="30" viewBox="0 0 30 30" xmlns="http://www.w3.org/2000/svg">
    <g fill="#FFF" fill-rule="evenodd">
        <rect x="7.885" y="8" width="16.615" height="2" rx="1"/>
        <rect x="5.5" y="14" width="19" height="2" rx="1"/>
        <rect x="7.885" y="20" width="16.615" height="2" rx="1"/>
        <path d="m3.707 14.293 2.586-2.586A1 1 0 0 1 8 12.414v5.172a1 1 0 0 1-1.707.707l-2.586-2.586a1 1 0 0 1 0-1.414z"/>
    </g>
</svg>
