<svg width="16" height="16" viewBox="0 0 16 16" xmlns="http://www.w3.org/2000/svg">
    <path d="M12.95 9.247H3.154c-.45 0-.816-.326-.816-.728 0-.401.365-.727.816-.727h9.796c.45 0 .816.326.816.727 0 .402-.365.728-.816.728m0-3.429H3.154c-.45 0-.816-.325-.816-.727 0-.402.365-.727.816-.727h9.796c.45 0 .816.325.816.727 0 .402-.365.727-.816.727M12.364 0H3.636A3.64 3.64 0 0 0 0 3.636v5.818a3.643 3.643 0 0 0 2.91 3.564v2.255a.727.727 0 0 0 1.13.605l4.178-2.787h4.146A3.64 3.64 0 0 0 16 9.454V3.636A3.64 3.64 0 0 0 12.364 0" fill="#3D61E1" fill-rule="evenodd"/>
</svg>
