<svg width="31" height="31" viewBox="0 0 31 31" xmlns="http://www.w3.org/2000/svg" xmlns:xlink="http://www.w3.org/1999/xlink">
    <defs>
        <path id="e6kapsrnha" d="M0 0h24v13H0z"/>
    </defs>
    <g fill="none" fill-rule="evenodd">
        <g transform="translate(3 10)">
            <mask id="uwn9x2gylb" fill="#fff">
                <use xlink:href="#e6kapsrnha"/>
            </mask>
            <path d="M20.484 13h-1.359a.713.713 0 0 1-.703-.722c0-.4.315-.722.703-.722h1.36c1.162 0 2.109-.972 2.109-2.167V3.61c0-1.195-.947-2.167-2.11-2.167H3.516c-1.164 0-2.11.972-2.11 2.167V9.39c0 1.195.946 2.167 2.11 2.167h1.359c.388 0 .703.323.703.722a.713.713 0 0 1-.703.722h-1.36C1.578 13 0 11.38 0 9.389V3.61C0 1.62 1.577 0 3.516 0h16.968C22.423 0 24 1.62 24 3.611V9.39C24 11.38 22.423 13 20.484 13" fill="#3D61E1" mask="url(#uwn9x2gylb)"/>
        </g>
        <path d="M23.293 18H6.707c-.39 0-.707-.224-.707-.5s.316-.5.707-.5h16.586c.39 0 .707.224.707.5s-.316.5-.707.5" fill="#3D61E1"/>
        <path d="M8.437 18.345v6.637c0 .371.322.673.719.673h11.688c.397 0 .719-.302.719-.673v-6.637H8.437zM20.844 27H9.156C7.967 27 7 26.095 7 24.982v-7.31c0-.37.322-.672.719-.672H22.28c.397 0 .719.301.719.673v7.31C23 26.094 22.033 27 20.844 27z" fill="#3D61E1"/>
        <path d="M16.318 21h-3.636c-.377 0-.682-.224-.682-.5s.305-.5.682-.5h3.636c.377 0 .682.224.682.5s-.305.5-.682.5M16.318 24h-3.636c-.377 0-.682-.224-.682-.5s.305-.5.682-.5h3.636c.377 0 .682.224.682.5s-.305.5-.682.5M9.23 14H6.77c-.426 0-.77-.224-.77-.5s.344-.5.77-.5h2.46c.426 0 .77.224.77.5s-.344.5-.77.5M8.437 9.68h13.126V7.301c0-1.093-.967-1.981-2.156-1.981h-8.814c-1.189 0-2.156.888-2.156 1.98V9.68zM22.281 11H7.72C7.322 11 7 10.704 7 10.34V7.302C7 5.482 8.612 4 10.593 4h8.814C21.388 4 23 5.481 23 7.302v3.038c0 .364-.322.66-.719.66z" fill="#3D61E1"/>
    </g>
</svg>
