<svg width="22" height="22" viewBox="0 0 22 22" xmlns="http://www.w3.org/2000/svg" xmlns:xlink="http://www.w3.org/1999/xlink">
    <defs>
        <path id="o8ja2x1uoa" d="M0 0h22v22H0z"/>
    </defs>
    <g fill="none" fill-rule="evenodd">
        <mask id="f5u0rikgjb" fill="#fff">
            <use xlink:href="#o8ja2x1uoa"/>
        </mask>
        <path d="M17.904 17.903a9.761 9.761 0 0 1-4.043 2.433l.07-.09a11.281 11.281 0 0 0 1.686-3.726c1.061.09 2.12.21 3.176.361-.273.36-.57.702-.889 1.022zM3.207 16.881a53.392 53.392 0 0 1 3.173-.361c.191.71.437 1.403.736 2.075a8.771 8.771 0 0 0 1.023 1.741 9.762 9.762 0 0 1-4.932-3.455zm.889-12.784a9.761 9.761 0 0 1 4.043-2.433l-.07.09A11.279 11.279 0 0 0 6.383 5.48a55.36 55.36 0 0 1-3.176-.361c.272-.36.57-.702.889-1.022zm14.697 1.022a53.392 53.392 0 0 1-3.174.361 14.09 14.09 0 0 0-.735-2.075 8.767 8.767 0 0 0-1.023-1.741 9.762 9.762 0 0 1 4.932 3.455zm-2.488 6.499h4.438a9.695 9.695 0 0 1-1.21 4.126 55.062 55.062 0 0 0-3.63-.44c.239-1.215.373-2.448.402-3.686zm-1.644-4.826a20.44 20.44 0 0 1 .408 3.59H6.93c.03-1.206.166-2.408.408-3.59a54.853 54.853 0 0 0 7.324 0zm-7.323 8.416a20.436 20.436 0 0 1-.407-3.59h8.139a20.432 20.432 0 0 1-.408 3.59 54.819 54.819 0 0 0-7.324 0zm13.405-4.826h-4.437a21.828 21.828 0 0 0-.401-3.686 55.764 55.764 0 0 0 3.629-.44 9.695 9.695 0 0 1 1.209 4.126zM9.593 1.887c.21-.203.452-.37.715-.494a1.612 1.612 0 0 1 1.384 0c.501.256.93.634 1.248 1.098a9.829 9.829 0 0 1 1.42 3.082 53.698 53.698 0 0 1-6.721 0c.162-.566.363-1.12.603-1.659a6.378 6.378 0 0 1 1.352-2.027zm-7.127 4.37c1.206.186 2.416.333 3.63.44a21.782 21.782 0 0 0-.401 3.685H1.257a9.695 9.695 0 0 1 1.21-4.126zm-1.209 5.36h4.437c.03 1.239.163 2.472.401 3.687a55.798 55.798 0 0 0-3.629.44 9.695 9.695 0 0 1-1.209-4.126zm11.149 8.496c-.21.203-.45.37-.714.494a1.612 1.612 0 0 1-1.384 0 3.367 3.367 0 0 1-1.248-1.098 9.83 9.83 0 0 1-1.42-3.082 53.737 53.737 0 0 1 6.721 0 12.403 12.403 0 0 1-.603 1.658 6.376 6.376 0 0 1-1.352 2.028zm7.976-3.371A10.946 10.946 0 0 0 22 11a10.946 10.946 0 0 0-1.618-5.742l-.006-.01C17.2.072 10.426-1.551 5.247 1.626a11 11 0 0 0-3.623 3.623l-.007.01a11 11 0 0 0 0 11.484l.007.01c3.177 5.177 9.95 6.8 15.129 3.622a11 11 0 0 0 3.623-3.622l.006-.01z" fill="#B7B7B7" mask="url(#f5u0rikgjb)"/>
    </g>
</svg>
