<svg width="20" height="20" viewBox="0 0 20 20" xmlns="http://www.w3.org/2000/svg">
    <path d="m10.775 6.152 3.024 4.27A1 1 0 0 1 12.983 12h-6.05a1 1 0 0 1-.815-1.578l3.025-4.27a1 1 0 0 1 1.632 0z" fill="#222" fill-rule="evenodd"/>
</svg>
