<svg width="40" height="40" viewBox="0 0 40 40" xmlns="http://www.w3.org/2000/svg" xmlns:xlink="http://www.w3.org/1999/xlink">
    <defs>
        <path id="hs9xfo82ra" d="M0 0h21v21H0z"/>
    </defs>
    <g fill="none" fill-rule="evenodd">
        <g transform="translate(9 10)">
            <mask id="kfh33i9qeb" fill="#fff">
                <use xlink:href="#hs9xfo82ra"/>
            </mask>
            <path d="m19.443 8.027-1-.175a8.369 8.369 0 0 0-.453-1.098l.582-.83a1.876 1.876 0 0 0-.21-2.411l-.875-.875a1.876 1.876 0 0 0-2.412-.21l-.83.582a8.368 8.368 0 0 0-1.097-.454l-.176-1A1.88 1.88 0 0 0 11.12 0h-1.24c-.916 0-1.695.655-1.852 1.557l-.175.999a8.348 8.348 0 0 0-1.098.453l-.83-.581a1.876 1.876 0 0 0-2.41.21l-.876.875a1.876 1.876 0 0 0-.21 2.412l.581.829a8.375 8.375 0 0 0-.454 1.098l-.998.175A1.876 1.876 0 0 0 0 9.881v1.238c0 .916.655 1.695 1.557 1.854l.999.175c.125.376.277.744.453 1.098l-.581.83a1.876 1.876 0 0 0 .21 2.41l.875.876c.647.65 1.662.738 2.411.21l.83-.581c.354.177.722.329 1.098.454l.175.998A1.876 1.876 0 0 0 9.88 21h1.242c.916 0 1.694-.655 1.852-1.557a.755.755 0 0 0-.127-.567.755.755 0 0 0-.49-.312.754.754 0 0 0-.568.126.755.755 0 0 0-.312.49c-.03.174-.18.3-.357.3H9.88a.362.362 0 0 1-.357-.3l-.256-1.46a.763.763 0 0 0-.55-.602 6.801 6.801 0 0 1-1.635-.676.762.762 0 0 0-.818.036l-1.213.85a.362.362 0 0 1-.464-.04l-.876-.876a.362.362 0 0 1-.04-.464l.85-1.212a.762.762 0 0 0 .037-.818 6.81 6.81 0 0 1-.677-1.636.763.763 0 0 0-.603-.552l-1.46-.256a.362.362 0 0 1-.3-.355V9.88c0-.176.127-.326.3-.357l1.46-.256a.763.763 0 0 0 .603-.55c.153-.572.38-1.123.676-1.636a.762.762 0 0 0-.036-.818l-.85-1.212a.362.362 0 0 1 .04-.464l.876-.876a.362.362 0 0 1 .464-.04l1.212.85c.242.17.563.185.818.037a6.804 6.804 0 0 1 1.636-.677.762.762 0 0 0 .552-.602l.256-1.46c.03-.174.18-.3.355-.3h1.238c.177 0 .327.126.357.3l.256 1.46c.05.289.266.525.55.602a6.815 6.815 0 0 1 1.635.677.761.761 0 0 0 .818-.036l1.213-.85a.362.362 0 0 1 .464.04l.876.875c.124.125.142.32.04.465l-.85 1.211a.762.762 0 0 0-.037.818 6.82 6.82 0 0 1 .677 1.636c.076.284.313.5.602.551l1.46.256c.174.03.3.18.3.356v1.238a.362.362 0 0 1-.3.357.76.76 0 0 0 .263 1.497A1.876 1.876 0 0 0 21 11.119V9.88a1.88 1.88 0 0 0-1.557-1.854" fill="#FFF" mask="url(#kfh33i9qeb)"/>
        </g>
        <path d="M25.574 22.847c-.374-.38-.561-.9-.512-1.43.241-2.737-1.811-5.159-4.576-5.398a5.102 5.102 0 0 0-.882 0 1.185 1.185 0 0 0-.743 2.013l1.387 1.4a.49.49 0 0 1 .001.689l-1.081 1.05a.502.502 0 0 1-.705-.006l-1.387-1.4a1.215 1.215 0 0 0-1.7-.016c-.196.19-.32.443-.347.711-.298 2.732 1.704 5.195 4.463 5.49.293.031.59.037.885.017a1.834 1.834 0 0 1 1.43.532l3.216 3.28a.735.735 0 0 0 1.037.015.722.722 0 0 0 .016-1.026l-3.22-3.284a3.31 3.31 0 0 0-2.58-.966c-1.961.133-3.666-1.339-3.8-3.28l-.001-.005.94.948c.362.367.867.58 1.387.583h.022c.516 0 1.002-.197 1.37-.555l1.074-1.043a1.934 1.934 0 0 0 .026-2.751l-.94-.949c1.725.147 3.136 1.526 3.252 3.288.012.179.01.36-.006.537-.086.95.25 1.888.923 2.57l3.217 3.281a.735.735 0 0 0 1.038.015.722.722 0 0 0 .015-1.026l-3.219-3.284z" fill="#FFF"/>
    </g>
</svg>
