<svg width="51" height="51" viewBox="0 0 51 51" xmlns="http://www.w3.org/2000/svg" xmlns:xlink="http://www.w3.org/1999/xlink">
    <defs>
        <filter x="-18.8%" y="-18.8%" width="137.5%" height="137.5%" filterUnits="objectBoundingBox" id="htypsfxrpa">
            <feMorphology radius="1" operator="dilate" in="SourceAlpha" result="shadowSpreadOuter1"/>
            <feOffset in="shadowSpreadOuter1" result="shadowOffsetOuter1"/>
            <feGaussianBlur stdDeviation="1.5" in="shadowOffsetOuter1" result="shadowBlurOuter1"/>
            <feColorMatrix values="0 0 0 0 0 0 0 0 0 0 0 0 0 0 0 0 0 0 0.297755955 0" in="shadowBlurOuter1"/>
        </filter>
        <circle id="o9fbk1nmrb" cx="20" cy="20" r="20"/>
    </defs>
    <g fill="none" fill-rule="evenodd">
        <g transform="translate(5.5 5.5)">
            <use fill="#000" filter="url(#htypsfxrpa)" xlink:href="#o9fbk1nmrb"/>
            <use fill="#FFF" xlink:href="#o9fbk1nmrb"/>
        </g>
        <g fill="#FFF" fill-rule="nonzero">
            <path d="M25.5 23c-1.95 0-3.5 1.6-3.5 3.5 0 1.95 1.6 3.5 3.5 3.5 1.95 0 3.5-1.6 3.5-3.5 0-1.95-1.55-3.5-3.5-3.5zm0 5.25c-.95 0-1.75-.8-1.75-1.75s.8-1.75 1.75-1.75 1.75.8 1.75 1.75-.8 1.75-1.75 1.75zM37.5 23c-1.95 0-3.5 1.6-3.5 3.5 0 1.95 1.6 3.5 3.5 3.5 1.95 0 3.499-1.6 3.499-3.5.05-1.95-1.55-3.5-3.5-3.5zm0 5.25c-.95 0-1.75-.8-1.75-1.75s.8-1.75 1.75-1.75 1.75.8 1.75 1.75-.75 1.75-1.75 1.75zM13.5 23c-1.95 0-3.5 1.6-3.5 3.5 0 1.95 1.6 3.5 3.5 3.5 1.95 0 3.5-1.6 3.5-3.5 0-1.95-1.6-3.5-3.5-3.5zm0 5.25c-.95 0-1.75-.8-1.75-1.75s.8-1.75 1.75-1.75 1.75.8 1.75 1.75-.8 1.75-1.75 1.75z"/>
        </g>
        <text font-family="Pretendard-Regular, Pretendard" font-size="8" letter-spacing="-.286" fill="#222" transform="translate(5.5 5.5)">
                    <tspan x="9.5" y="30.5">MORE</tspan>
                </text>
        <path d="M25.5 26a.499.499 0 0 1-.353-.146l-5-5a.5.5 0 1 1 .707-.707l4.646 4.646 4.646-4.646a.5.5 0 1 1 .707.707l-5 5A.499.499 0 0 1 25.5 26zm.353-4.146 5-5a.5.5 0 1 0-.707-.707L25.5 20.793l-4.646-4.646a.5.5 0 1 0-.707.707l5 5a.499.499 0 0 0 .706 0z" fill="#000" fill-rule="nonzero"/>
    </g>
</svg>
