<svg width="26" height="26" viewBox="0 0 26 26" xmlns="http://www.w3.org/2000/svg">
    <path d="M16.125 19h-5.25c-.483 0-.875-.358-.875-.8 0-.442.392-.8.875-.8h.875v-4.8h-.875c-.483 0-.875-.358-.875-.8 0-.442.392-.8.875-.8h3.5c.483 0 .875.358.875.8v5.6h.875c.483 0 .875.358.875.8 0 .442-.392.8-.875.8M13.5 6a1.5 1.5 0 1 1 0 3 1.5 1.5 0 0 1 0-3M13 0C5.82 0 0 5.82 0 13s5.82 13 13 13 13-5.82 13-13S20.18 0 13 0" fill="#FFF" fill-rule="evenodd"/>
</svg>
